…
Take a look at the Azimuth output. It contains six new columns that all
start with “predicted.celltype”. These columns contain the labels and
confidence scores from the automated mapping. These will serve as the
input to `treelabel` which turns the six columns into one!

``` r
azimuth_res@meta.data |>
  as_tibble(rownames = "cell_id") 
#> # A tibble: 31,021 × 10
#>   cell_id            orig.ident Experiment Method     predicted.celltype.l1.…¹ predicted.celltype.l1
#>   <chr>              <fct>      <chr>      <chr>                         <dbl> <chr>                
#> 1 pbmc1_SM2_Cell_108 pbmc1      pbmc1      Smart-seq2                    0.966 NK                   
#> 2 pbmc1_SM2_Cell_115 pbmc1      pbmc1      Smart-seq2                    1     NK                   
#> 3 pbmc1_SM2_Cell_133 pbmc1      pbmc1      Smart-seq2                    0.988 NK                   
#> 4 pbmc1_SM2_Cell_142 pbmc1      pbmc1      Smart-seq2                    1     CD8 T                
#> 5 pbmc1_SM2_Cell_143 pbmc1      pbmc1      Smart-seq2                    0.763 NK                   
#> # ℹ 31,016 more rows
#> # ℹ abbreviated name: ¹​predicted.celltype.l1.score
#> # ℹ 4 more variables: predicted.celltype.l2.score <dbl>, predicted.celltype.l2 <chr>,
#> #   predicted.celltype.l3.score <dbl>, predicted.celltype.l3 <chr>
```
…
We can join the `celltype_annotations` with the full meta data to
replace the old `predicted.celltype` column with our new `treelabel`.

``` r
meta_data <- azimuth_res@meta.data |>
  as_tibble(rownames = "cell_id") |>
  dplyr::select(- starts_with("predicted.celltype")) |>
  left_join(celltype_annotations, by = "cell_id")

meta_data
#> # A tibble: 31,021 × 5
#>   cell_id            orig.ident Experiment Method     azimuth_celltypes
#>   <chr>              <fct>      <chr>      <chr>                   <tl>
#> 1 pbmc1_SM2_Cell_108 pbmc1      pbmc1      Smart-seq2          NK(0.97)
#> 2 pbmc1_SM2_Cell_115 pbmc1      pbmc1      Smart-seq2          NK(1.00)
#> 3 pbmc1_SM2_Cell_133 pbmc1      pbmc1      Smart-seq2          NK(0.99)
#> 4 pbmc1_SM2_Cell_142 pbmc1      pbmc1      Smart-seq2     CD8 TEM(0.98)
#> 5 pbmc1_SM2_Cell_143 pbmc1      pbmc1      Smart-seq2          NK(0.76)
#> # ℹ 31,016 more rows
```

The `pbmcsca` contains results from ten different sequencing
experiments. We can for example count how often each cell type was seen
per method

``` r
# Summing the confidence scores does not exactly give you the counts
meta_data |>
  summarize(as_tibble(tl_score_matrix(sum(azimuth_celltypes, na.rm=TRUE))), .by = c(Method)) 
#> # A tibble: 9 × 22
#>   Method   root `T cell`  Mono    DC    NK     B `CD8 T` `CD4 T` `CD14 Mono` `CD16 Mono`  cDC1  cDC2
#>   <chr>   <dbl>    <dbl> <dbl> <dbl> <dbl> <dbl>   <dbl>   <dbl>       <dbl>       <dbl> <dbl> <dbl>
#> 1 Smart-…  421.     187.  72.1 10     74.8  77      115.    71.9        53.0        16.5 0.992  5   
#> 2 CEL-Se…  371.     188.  31.8  3.99  67.5  80.0    111.    77.4        11.7        17.4 0      3.73
#> 3 10x Ch… 2524.    1314. 715.  69.0  150.  276.     842.   472.        589.        108.  3.87  37.7 
#> 4 10x Ch… 2537.    1509. 407.  40.7  200.  379.     913.   596.        321.         77.9 0.976 28.7 
#> 5 10x Ch… 2568.    1538. 438.  33    213.  346.     971.   567.        329.        101.  0.995 21   
#> # ℹ 4 more rows
#> # ℹ 9 more variables: pDC <dbl>, `CD8 Naive` <dbl>, `CD8 TCM` <dbl>, `CD8 TEM` <dbl>, CTL <dbl>,
#> #   `CD4 Naive` <dbl>, `CD4 TCM` <dbl>, `CD4 TEM` <dbl>, Treg <dbl>

# Instead, you can say that only labels where the score exceeds a thresholds count.
meta_data |>
  mutate(azimuth_celltypes = tl_modify(azimuth_celltypes, .scores > 0.8)) |>
  summarize(as_tibble(tl_score_matrix(sum(azimuth_celltypes, na.rm=TRUE))), .by = c(Method))
#> # A tibble: 9 × 22
#>   Method   root `T cell`  Mono    DC    NK     B `CD8 T` `CD4 T` `CD14 Mono` `CD16 Mono`  cDC1  cDC2
#>   <chr>   <dbl>    <dbl> <dbl> <dbl> <dbl> <dbl>   <dbl>   <dbl>       <dbl>       <dbl> <dbl> <dbl>
#> 1 Smart-…   397      169    72    10    69    77     100      69          50          15     1     5
#> 2 CEL-Se…   302      134    23     4    61    80      72      62           3          15     0     4
#> 3 10x Ch…  2079      916   702    64   122   274     599     307         562          98     4    33
#> 4 10x Ch…  2129     1154   393    39   165   376     712     429         300          73     1    27
#> 5 10x Ch…  2381     1376   427    33   198   346     885     488         313         100     1    21
#> # ℹ 4 more rows
#> # ℹ 9 more variables: pDC <dbl>, `CD8 Naive` <dbl>, `CD8 TCM` <dbl>, `CD8 TEM` <dbl>, CTL <dbl>,
#> #   `CD4 Naive` <dbl>, `CD4 TCM` <dbl>, `CD4 TEM` <dbl>, Treg <dbl>
```
…
``` r
# Apply threshold and make Experiment a factor
input_dat <- meta_data |>
  mutate(Experiment = as.factor(Experiment)) |>
  mutate(patient_id = sample(paste0("sample_", 1:5), size = n(), replace = TRUE)) |>
  mutate(azimuth_celltypes = tl_modify(azimuth_celltypes, .scores > 0.8)) 

# The function takes many arguments. See `?test_abundance_changes` for all details
test_abundance_changes(input_dat, design = ~ Experiment, aggregate_by = patient_id) 
#> Default contrast is: `cond(Experiment = 'pbmc2') - cond(Experiment = 'pbmc1')`
#> # A tibble: 20 × 7
#>   treelabel         target    LFC LFC_se dispersion          pval     adj_pval
#>   <chr>             <chr>   <dbl>  <dbl>      <dbl>         <dbl>        <dbl>
#> 1 azimuth_celltypes T cell -0.285 0.0226       1    0.00000148    0.00000651  
#> 2 azimuth_celltypes Mono   -0.424 0.0343       1.10 0.00000171    0.00000651  
#> 3 azimuth_celltypes DC      0.291 0.157        2.65 0.101         0.127       
#> 4 azimuth_celltypes NK      0.356 0.0518       1    0.000128      0.000305    
#> 5 azimuth_celltypes B       0.797 0.0324       1.05 0.00000000789 0.0000000500
#> # ℹ 15 more rows

# We can also run `test_abundance_changes` inside dplyr::reframe (an alternative to `summarize)
# and calculate the abundance changes for each Method separately.
input_dat |>
  reframe(test_abundance_changes(data = across(everything()), design = ~ Experiment, aggregate_by = patient_id, 
                                 reference = `T cell`, contrast = cond(Experiment = 'pbmc2') - cond(Experiment = 'pbmc1')),
          .by = Method) 
#> # A tibble: 90 × 8
#>   Method     treelabel         target       LFC LFC_se dispersion   pval adj_pval
#>   <chr>      <chr>             <chr>      <dbl>  <dbl>      <dbl>  <dbl>    <dbl>
#> 1 Smart-seq2 azimuth_celltypes CD8 T     -0.658  0.234          1 0.0229   0.0343
#> 2 Smart-seq2 azimuth_celltypes CD4 T      0.817  0.244          1 0.0101   0.0238
#> 3 Smart-seq2 azimuth_celltypes CD8 Naive -0.421  0.837          1 0.628    0.628 
#> 4 Smart-seq2 azimuth_celltypes CD8 TCM    1.19   1.22           1 0.360    0.432 
#> 5 Smart-seq2 azimuth_celltypes CD8 TEM   -0.922  0.279          1 0.0107   0.0238
#> # ℹ 85 more rows
```
…
